i,i,i,i,i,i,i,i,i,i,i,i,i,i,i,i,i,i,i,i,i
i,i,i,i,i,i,i,i,i,i,i,i,i,i,i,i,i,i,i,i,i
i,i,i,i,i,i,i,i,i,i,i,i,i,i,i,i,i,i,i,i,i
i,i,i,i,i,i,i,i,i,i,i,i,i,i,i,i,i,i,i,i,i
i,i,i,i,o,o,c,o,o,o,o,o,o,o,c,c,c,i,i,i,i
i,i,i,i,o,o,c,o,o,o,o,o,o,o,c,c,c,i,i,i,i
i,i,i,i,c,c,c,o,o,o,o,o,o,o,c,c,c,i,i,i,i
i,i,i,i,o,o,o,c,c,c,c,c,c,c,o,o,o,i,i,i,i
i,i,i,i,o,o,o,c,c,o,o,o,c,c,o,o,o,i,i,i,i
i,i,i,i,o,o,o,c,c,o,o,o,c,c,o,o,o,i,i,i,i
i,i,i,i,i,i,i,i,i,i,i,i,i,i,i,i,i,i,i,i,i
i,i,i,i,i,i,i,i,i,i,i,i,i,i,i,i,i,i,i,i,i
i,i,i,i,i,i,i,i,i,i,i,i,i,i,i,i,i,i,i,i,i
i,i,i,i,i,i,i,i,i,i,i,i,i,i,i,i,i,i,i,i,i