i,i,i,i,i,i,i,i,i,i,i,i,i,i,i
i,i,i,i,i,i,i,i,i,i,i,i,i,i,i
i,i,i,i,i,i,i,i,i,i,i,i,i,i,i
i,i,i,o,o,o,o,o,o,o,o,o,i,i,i
i,i,i,c,c,c,c,c,c,c,c,c,i,i,i
i,i,i,c,c,c,c,c,c,c,c,c,i,i,i
i,i,i,i,i,i,i,i,i,i,i,i,i,i,i
i,i,i,i,i,i,i,i,i,i,i,i,i,i,i
i,i,i,i,i,i,i,i,i,i,i,i,i,i,i